[
    {
        "display_name": "Dashboard",
        "route": "/",
        "icon": "bx bx-category-alt"
    },
    {
        "display_name": "Users",
        "route": "/users",
        "icon": "bx bx-user-pin"
    },
    {
        "display_name": "Places",
        "route": "/places",
        "icon": "bx bx-map-pin"
    },
    {
        "display_name": "settings",
        "route": "/settings",
        "icon": "bx bx-cog"
    }
]